{"d":{"myName":"ti-sensortag2"}}
{"d":{"myName":"ti-sensortag2","ambientTemp":"22.02","objectTemp":"19.25","humidity":"48.10864","accelX":"0.00","accelY":"0.00","accelZ":"0.00","gyroX":"0.00","gyroY":"0.00","gyroZ":"0.00","magX":"0.00","magY":"0.00","magZ":"0.00"}}
{"d":{"myName":"ti-sensortag2","ambientTemp":"22.02","objectTemp":"19.41","humidity":"48.10864","accelX":"-0.06","accelY":"0.10","accelZ":"-0.96","gyroX":"3.97","gyroY":"3.37","gyroZ":"5.25","magX":"-10.34","magY":"-4.20","magZ":"4.20","light":"0.00"}}
{"d":{"myName":"ti-sensortag2","ambientTemp":"22.03","objectTemp":"19.75","humidity":"48.2002","accelX":"-0.04","accelY":"0.06","accelZ":"-0.94","gyroX":"4.30","gyroY":"4.36","gyroZ":"1.96","magX":"-12.59","magY":"-4.80","magZ":"3.75","light":"0.00"}}
{"d":{"myName":"ti-sensortag2","ambientTemp":"22.03","objectTemp":"19.34","humidity":"48.2002","accelX":"-0.10","accelY":"0.12","accelZ":"-0.99","gyroX":"4.71","gyroY":"3.18","gyroZ":"5.74","magX":"-13.34","magY":"-3.30","magZ":"5.85","light":"0.00"}}
{"d":{"myName":"ti-sensortag2","ambientTemp":"22.02","objectTemp":"19.75","humidity":"48.2002","accelX":"0.13","accelY":"0.18","accelZ":"-0.96","gyroX":"3.69","gyroY":"0.60","gyroZ":"1.69","magX":"-11.69","magY":"-3.15","magZ":"3.90","light":"0.00"}}
{"d":{"myName":"ti-sensortag2","ambientTemp":"22.03","objectTemp":"19.53","humidity":"48.29786","accelX":"-0.05","accelY":"0.07","accelZ":"-0.96","gyroX":"4.99","gyroY":"2.65","gyroZ":"5.88","magX":"-12.14","magY":"-4.50","magZ":"4.95","light":"0.00"}}
{"d":{"myName":"ti-sensortag2","ambientTemp":"22.03","objectTemp":"19.62","humidity":"48.29786","accelX":"-0.10","accelY":"0.07","accelZ":"-0.99","gyroX":"5.40","gyroY":"4.11","gyroZ":"5.21","magX":"-12.59","magY":"-5.10","magZ":"4.35","light":"0.00"}}
{"d":{"myName":"ti-sensortag2","ambientTemp":"22.03","objectTemp":"22.09","humidity":"48.29786","accelX":"2.98","accelY":"4.55","accelZ":"-0.46","gyroX":"-77.45","gyroY":"-23.54","gyroZ":"219.50","magX":"-11.54","magY":"-2.25","magZ":"4.05","light":"2.81"}}
{"d":{"myName":"ti-sensortag2","ambientTemp":"22.04","objectTemp":"20.56","humidity":"48.49317","accelX":"-0.08","accelY":"-1.73","accelZ":"-0.88","gyroX":"123.60","gyroY":"254.99","gyroZ":"-141.99","magX":"-8.99","magY":"-25.63","magZ":"49.32","light":"3.38"}}
{"d":{"myName":"ti-sensortag2","ambientTemp":"22.06","objectTemp":"22.62","humidity":"48.59083","accelX":"3.96","accelY":"-1.89","accelZ":"2.77","gyroX":"-39.10","gyroY":"-160.78","gyroZ":"-211.79","magX":"22.19","magY":"18.29","magZ":"52.17","light":"0.97"}}
{"d":{"myName":"ti-sensortag2","ambientTemp":"22.06","objectTemp":"22.34","humidity":"48.59083","accelX":"-0.40","accelY":"-0.14","accelZ":"-0.76","gyroX":"-133.31","gyroY":"-8.38","gyroZ":"80.49","magX":"20.69","magY":"-35.68","magZ":"79.00","light":"0.72"}}
{"d":{"myName":"ti-sensortag2","ambientTemp":"22.04","objectTemp":"21.44","humidity":"48.78614","accelX":"-0.55","accelY":"0.13","accelZ":"0.82","gyroX":"-18.32","gyroY":"20.84","gyroZ":"108.22","magX":"-9.89","magY":"8.39","magZ":"19.49","light":"3.21"}}
{"d":{"myName":"ti-sensortag2","ambientTemp":"22.07","objectTemp":"22.50","humidity":"48.97536","accelX":"0.42","accelY":"1.11","accelZ":"0.76","gyroX":"-29.24","gyroY":"-5.31","gyroZ":"-68.49","magX":"-16.04","magY":"-22.94","magZ":"57.11","light":"12.54"}}
{"d":{"myName":"ti-sensortag2","ambientTemp":"22.07","objectTemp":"21.47","humidity":"49.07301","accelX":"-0.45","accelY":"1.81","accelZ":"2.27","gyroX":"254.99","gyroY":"254.99","gyroZ":"-168.36","magX":"-26.08","magY":"3.30","magZ":"47.37","light":"0.97"}}
{"d":{"myName":"ti-sensortag2","ambientTemp":"22.07","objectTemp":"22.47","humidity":"49.07301","accelX":"1.00","accelY":"-0.81","accelZ":"0.48","gyroX":"-6.52","gyroY":"60.06","gyroZ":"-23.34","magX":"8.69","magY":"-33.73","magZ":"82.00","light":"3.05"}}
{"d":{"myName":"ti-sensortag2","ambientTemp":"22.09","objectTemp":"22.25","humidity":"49.5613","accelX":"0.93","accelY":"-0.45","accelZ":"0.42","gyroX":"5.60","gyroY":"1.92","gyroZ":"3.31","magX":"27.88","magY":"-34.18","magZ":"81.10","light":"2.58"}}
{"d":{"myName":"ti-sensortag2","ambientTemp":"22.12","objectTemp":"19.78","humidity":"50.33036","accelX":"-0.02","accelY":"-0.49","accelZ":"0.95","gyroX":"5.90","gyroY":"14.02","gyroZ":"0.98","magX":"49.62","magY":"-21.44","magZ":"135.51","light":"0.64"}}
{"d":{"myName":"ti-sensortag2","ambientTemp":"22.15","objectTemp":"19.78","humidity":"50.52567","accelX":"-0.02","accelY":"-0.49","accelZ":"0.95","gyroX":"5.90","gyroY":"14.02","gyroZ":"0.98","magX":"49.62","magY":"-21.44","magZ":"135.51","light":"0.64"}}
{"d":{"myName":"ti-sensortag2","ambientTemp":"22.15","objectTemp":"25.19","humidity":"50.81865","accelX":"-0.02","accelY":"-0.49","accelZ":"0.95","gyroX":"5.90","gyroY":"14.02","gyroZ":"0.98","magX":"49.62","magY":"-21.44","magZ":"135.51","light":"0.40"}}
{"d":{"myName":"ti-sensortag2","ambientTemp":"22.16","objectTemp":"25.06","humidity":"51.39849","accelX":"-0.02","accelY":"-0.49","accelZ":"0.95","gyroX":"5.90","gyroY":"14.02","gyroZ":"0.98","magX":"49.62","magY":"-21.44","magZ":"135.51","light":"0.56"}}
{"d":{"myName":"ti-sensortag2","ambientTemp":"22.16","objectTemp":"24.91","humidity":"51.39849","accelX":"-0.02","accelY":"-0.49","accelZ":"0.95","gyroX":"5.90","gyroY":"14.02","gyroZ":"0.98","magX":"49.62","magY":"-21.44","magZ":"135.51","light":"0.56"}}
{"d":{"myName":"ti-sensortag2"}}
{"d":{"myName":"ti-sensortag2","ambientTemp":"22.35","objectTemp":"20.44","humidity":"55.68322","accelX":"0.03","accelY":"-0.53","accelZ":"0.94","gyroX":"7.47","gyroY":"-2.23","gyroZ":"2.68","magX":"48.87","magY":"-20.39","magZ":"134.46","light":"4.67"}}
{"d":{"myName":"ti-sensortag2","ambientTemp":"22.35","objectTemp":"23.56","humidity":"55.68322","accelX":"0.13","accelY":"-0.48","accelZ":"0.97","gyroX":"-2.34","gyroY":"-9.23","gyroZ":"5.00","magX":"46.62","magY":"-19.64","magZ":"134.76","light":"4.51"}}
{"d":{"myName":"ti-sensortag2","ambientTemp":"22.35","objectTemp":"15.03","humidity":"55.68322","accelX":"1.14","accelY":"0.29","accelZ":"1.15","gyroX":"-131.89","gyroY":"-8.38","gyroZ":"227.80","magX":"48.72","magY":"-22.79","magZ":"137.46","light":"3.21"}}
{"d":{"myName":"ti-sensortag2","ambientTemp":"22.35","objectTemp":"19.19","humidity":"55.68322","accelX":"0.05","accelY":"-0.08","accelZ":"0.76","gyroX":"-152.97","gyroY":"231.05","gyroZ":"43.44","magX":"19.94","magY":"-28.18","magZ":"115.27","light":"2.34"}}
{"d":{"myName":"ti-sensortag2","ambientTemp":"22.35","objectTemp":"18.53","humidity":"55.68322","accelX":"0.04","accelY":"-0.15","accelZ":"1.06","gyroX":"5.24","gyroY":"3.32","gyroZ":"1.31","magX":"17.84","magY":"-20.99","magZ":"144.06","light":"5.62"}}
{"d":{"myName":"ti-sensortag2","ambientTemp":"22.35","objectTemp":"18.75","humidity":"55.68322","accelX":"0.04","accelY":"-0.15","accelZ":"1.06","gyroX":"5.24","gyroY":"3.32","gyroZ":"1.31","magX":"17.84","magY":"-20.99","magZ":"144.06","light":"5.62"}}
{"d":{"myName":"ti-sensortag2","ambientTemp":"22.35","objectTemp":"18.56","humidity":"55.68322","accelX":"0.21","accelY":"-0.12","accelZ":"1.06","gyroX":"4.70","gyroY":"2.65","gyroZ":"4.95","magX":"18.44","magY":"-20.09","magZ":"144.81","light":"5.78"}}
{"d":{"myName":"ti-sensortag2","ambientTemp":"22.35","objectTemp":"18.34","humidity":"55.68322","accelX":"0.03","accelY":"-0.06","accelZ":"1.00","gyroX":"6.22","gyroY":"1.18","gyroZ":"2.26","magX":"17.84","magY":"-22.34","magZ":"144.96","light":"5.78"}}
{"d":{"myName":"ti-sensortag2","ambientTemp":"22.35","objectTemp":"18.31","humidity":"55.68322","accelX":"0.10","accelY":"-0.12","accelZ":"1.09","gyroX":"1.23","gyroY":"5.97","gyroZ":"4.94","magX":"16.94","magY":"-21.14","magZ":"143.16","light":"5.70"}}
{"d":{"myName":"ti-sensortag2","ambientTemp":"22.35","objectTemp":"18.19","humidity":"55.68322","accelX":"0.12","accelY":"0.06","accelZ":"1.06","gyroX":"5.42","gyroY":"3.16","gyroZ":"3.00","magX":"16.79","magY":"-20.99","magZ":"144.06","light":"5.86"}}
{"d":{"myName":"ti-sensortag2","ambientTemp":"22.35","objectTemp":"18.59","humidity":"55.68322","accelX":"0.12","accelY":"0.06","accelZ":"1.06","gyroX":"5.42","gyroY":"3.16","gyroZ":"3.00","magX":"16.79","magY":"-20.99","magZ":"144.06","light":"5.54"}}
{"d":{"myName":"ti-sensortag2","ambientTemp":"22.35","objectTemp":"18.25","humidity":"55.68322","accelX":"0.12","accelY":"0.06","accelZ":"1.06","gyroX":"5.42","gyroY":"3.16","gyroZ":"3.00","magX":"16.79","magY":"-20.99","magZ":"144.06","light":"5.70"}}
{"d":{"myName":"ti-sensortag2","ambientTemp":"22.35","objectTemp":"18.38","humidity":"55.68322","accelX":"0.12","accelY":"0.06","accelZ":"1.06","gyroX":"5.42","gyroY":"3.16","gyroZ":"3.00","magX":"16.79","magY":"-20.99","magZ":"144.06","light":"5.78"}}
{"d":{"myName":"ti-sensortag2","ambientTemp":"22.35","objectTemp":"18.56","humidity":"55.68322","accelX":"0.12","accelY":"0.06","accelZ":"1.06","gyroX":"5.42","gyroY":"3.16","gyroZ":"3.00","magX":"16.79","magY":"-20.99","magZ":"144.06","light":"6.03"}}
{"d":{"myName":"ti-sensortag2","ambientTemp":"22.35","objectTemp":"18.38","humidity":"55.68322","accelX":"0.12","accelY":"0.06","accelZ":"1.06","gyroX":"5.42","gyroY":"3.16","gyroZ":"3.00","magX":"16.79","magY":"-20.99","magZ":"144.06","light":"6.03"}}
{"d":{"myName":"ti-sensortag2","ambientTemp":"22.35","objectTemp":"18.78","humidity":"55.68322","accelX":"0.12","accelY":"0.06","accelZ":"1.06","gyroX":"5.42","gyroY":"3.16","gyroZ":"3.00","magX":"16.79","magY":"-20.99","magZ":"144.06","light":"5.70"}}
{"d":{"myName":"ti-sensortag2","ambientTemp":"22.35","objectTemp":"18.56","humidity":"55.68322","accelX":"0.12","accelY":"0.06","accelZ":"1.06","gyroX":"5.42","gyroY":"3.16","gyroZ":"3.00","magX":"16.79","magY":"-20.99","magZ":"144.06","light":"5.70"}}
{"d":{"myName":"ti-sensortag2","ambientTemp":"22.35","objectTemp":"18.66","humidity":"55.68322","accelX":"0.12","accelY":"0.06","accelZ":"1.06","gyroX":"5.42","gyroY":"3.16","gyroZ":"3.00","magX":"16.79","magY":"-20.99","magZ":"144.06","light":"5.62"}}
{"d":{"myName":"ti-sensortag2","ambientTemp":"22.35","objectTemp":"18.53","humidity":"55.68322","accelX":"0.12","accelY":"0.06","accelZ":"1.06","gyroX":"5.42","gyroY":"3.16","gyroZ":"3.00","magX":"16.79","magY":"-20.99","magZ":"144.06","light":"6.02"}}
{"d":{"myName":"ti-sensortag2","ambientTemp":"22.35","objectTemp":"18.69","humidity":"55.68322","accelX":"0.12","accelY":"0.06","accelZ":"1.06","gyroX":"5.42","gyroY":"3.16","gyroZ":"3.00","magX":"16.79","magY":"-20.99","magZ":"144.06","light":"5.95"}}
{"d":{"myName":"ti-sensortag2","ambientTemp":"22.35","objectTemp":"18.78","humidity":"55.68322","accelX":"0.12","accelY":"0.06","accelZ":"1.06","gyroX":"5.42","gyroY":"3.16","gyroZ":"3.00","magX":"16.79","magY":"-20.99","magZ":"144.06","light":"5.87"}}
{"d":{"myName":"ti-sensortag2","ambientTemp":"22.35","objectTemp":"19.00","humidity":"55.68322","accelX":"0.12","accelY":"0.06","accelZ":"1.06","gyroX":"5.42","gyroY":"3.16","gyroZ":"3.00","magX":"16.79","magY":"-20.99","magZ":"144.06","light":"5.87"}}
{"d":{"myName":"ti-sensortag2","ambientTemp":"22.35","objectTemp":"18.88","humidity":"55.68322","accelX":"0.12","accelY":"0.06","accelZ":"1.06","gyroX":"5.42","gyroY":"3.16","gyroZ":"3.00","magX":"16.79","magY":"-20.99","magZ":"144.06","light":"6.02"}}
{"d":{"myName":"ti-sensortag2","ambientTemp":"22.35","objectTemp":"18.81","humidity":"55.68322","accelX":"0.12","accelY":"0.06","accelZ":"1.06","gyroX":"5.42","gyroY":"3.16","gyroZ":"3.00","magX":"16.79","magY":"-20.99","magZ":"144.06","light":"6.02"}}
{"d":{"myName":"ti-sensortag2","ambientTemp":"22.35","objectTemp":"18.94","humidity":"55.68322","accelX":"0.12","accelY":"0.06","accelZ":"1.06","gyroX":"5.42","gyroY":"3.16","gyroZ":"3.00","magX":"16.79","magY":"-20.99","magZ":"144.06","light":"6.10"}}
{"d":{"myName":"ti-sensortag2","ambientTemp":"22.35","objectTemp":"19.00","humidity":"55.68322","accelX":"0.12","accelY":"0.06","accelZ":"1.06","gyroX":"5.42","gyroY":"3.16","gyroZ":"3.00","magX":"16.79","magY":"-20.99","magZ":"144.06","light":"5.87"}}
{"d":{"myName":"ti-sensortag2","ambientTemp":"22.35","objectTemp":"18.94","humidity":"55.68322","accelX":"0.12","accelY":"0.06","accelZ":"1.06","gyroX":"5.42","gyroY":"3.16","gyroZ":"3.00","magX":"16.79","magY":"-20.99","magZ":"144.06","light":"5.95"}}
{"d":{"myName":"ti-sensortag2","ambientTemp":"22.35","objectTemp":"19.22","humidity":"55.68322","accelX":"0.12","accelY":"0.06","accelZ":"1.06","gyroX":"5.42","gyroY":"3.16","gyroZ":"3.00","magX":"16.79","magY":"-20.99","magZ":"144.06","light":"6.02"}}
{"d":{"myName":"ti-sensortag2"}}
{"d":{"myName":"ti-sensortag2","ambientTemp":"22.81","objectTemp":"22.00","humidity":"51.06279","accelX":"-1.44","accelY":"-0.11","accelZ":"-1.05","gyroX":"205.05","gyroY":"-51.19","gyroZ":"56.09","magX":"52.77","magY":"-3.45","magZ":"141.36","light":"0.08"}}
{"d":{"myName":"ti-sensortag2","ambientTemp":"22.81","objectTemp":"19.62","humidity":"51.06279","accelX":"-1.41","accelY":"-0.04","accelZ":"0.40","gyroX":"254.99","gyroY":"159.96","gyroZ":"-206.60","magX":"53.96","magY":"-8.39","magZ":"139.86","light":"2.65"}}
{"d":{"myName":"ti-sensortag2","ambientTemp":"22.81","objectTemp":"19.62","humidity":"51.06279","accelX":"-1.71","accelY":"-0.10","accelZ":"-1.01","gyroX":"254.99","gyroY":"-104.51","gyroZ":"-28.60","magX":"39.72","magY":"-4.05","magZ":"142.56","light":"2.49"}}
{"d":{"myName":"ti-sensortag2","ambientTemp":"22.81","objectTemp":"20.09","humidity":"51.06279","accelX":"-0.15","accelY":"0.20","accelZ":"2.10","gyroX":"45.55","gyroY":"35.84","gyroZ":"-91.13","magX":"20.24","magY":"4.80","magZ":"135.51","light":"2.17"}}
{"d":{"myName":"ti-sensortag2","ambientTemp":"22.81","objectTemp":"21.00","humidity":"51.06279","accelX":"-0.38","accelY":"-0.11","accelZ":"-2.28","gyroX":"-57.93","gyroY":"-255.00","gyroZ":"35.91","magX":"27.28","magY":"21.74","magZ":"118.87","light":"0.08"}}
{"d":{"myName":"ti-sensortag2","ambientTemp":"22.81","objectTemp":"22.25","humidity":"51.06279","accelX":"-0.88","accelY":"-0.25","accelZ":"0.53","gyroX":"-0.36","gyroY":"-37.91","gyroZ":"-0.64","magX":"16.04","magY":"15.44","magZ":"123.67","light":"0.16"}}
{"d":{"myName":"ti-sensortag2","ambientTemp":"22.81","objectTemp":"22.31","humidity":"51.06279","accelX":"-0.60","accelY":"-0.51","accelZ":"0.68","gyroX":"-65.80","gyroY":"-80.34","gyroZ":"15.15","magX":"23.68","magY":"7.65","magZ":"135.21","light":"0.24"}}
{"d":{"myName":"ti-sensortag2","ambientTemp":"22.81","objectTemp":"23.12","humidity":"51.06279","accelX":"0.11","accelY":"-0.10","accelZ":"1.06","gyroX":"4.70","gyroY":"3.21","gyroZ":"3.26","magX":"13.04","magY":"-22.19","magZ":"128.62","light":"2.57"}}
{"d":{"myName":"ti-sensortag2","ambientTemp":"22.81","objectTemp":"22.28","humidity":"51.06279","accelX":"0.13","accelY":"-0.13","accelZ":"1.04","gyroX":"2.67","gyroY":"4.95","gyroZ":"4.74","magX":"11.39","magY":"-22.79","magZ":"127.72","light":"1.53"}}
{"d":{"myName":"ti-sensortag2","ambientTemp":"22.81","objectTemp":"20.03","humidity":"51.06279","accelX":"0.22","accelY":"-0.12","accelZ":"1.03","gyroX":"4.92","gyroY":"2.30","gyroZ":"1.74","magX":"10.79","magY":"-21.44","magZ":"129.37","light":"6.67"}}
{"d":{"myName":"ti-sensortag2","ambientTemp":"22.81","objectTemp":"20.03","humidity":"51.06279","accelX":"0.22","accelY":"-0.12","accelZ":"1.03","gyroX":"4.92","gyroY":"2.30","gyroZ":"1.74","magX":"10.79","magY":"-21.44","magZ":"129.37","light":"6.67"}}
{"d":{"myName":"ti-sensortag2","ambientTemp":"22.81","objectTemp":"19.28","humidity":"51.06279","accelX":"0.22","accelY":"-0.12","accelZ":"1.03","gyroX":"4.92","gyroY":"2.30","gyroZ":"1.74","magX":"10.79","magY":"-21.44","magZ":"129.37","light":"6.67"}}
{"d":{"myName":"ti-sensortag2","ambientTemp":"22.81","objectTemp":"19.41","humidity":"51.06279","accelX":"0.22","accelY":"-0.12","accelZ":"1.03","gyroX":"4.92","gyroY":"2.30","gyroZ":"1.74","magX":"10.79","magY":"-21.44","magZ":"129.37","light":"6.67"}}
{"d":{"myName":"ti-sensortag2","ambientTemp":"22.81","objectTemp":"19.41","humidity":"51.06279","accelX":"0.22","accelY":"-0.12","accelZ":"1.03","gyroX":"4.92","gyroY":"2.30","gyroZ":"1.74","magX":"10.79","magY":"-21.44","magZ":"129.37","light":"6.67"}}
{"d":{"myName":"ti-sensortag2","ambientTemp":"22.81","objectTemp":"19.56","humidity":"51.06279","accelX":"0.22","accelY":"-0.12","accelZ":"1.03","gyroX":"4.92","gyroY":"2.30","gyroZ":"1.74","magX":"10.79","magY":"-21.44","magZ":"129.37","light":"6.67"}}
{"d":{"myName":"ti-sensortag2","ambientTemp":"22.81","objectTemp":"19.66","humidity":"51.06279","accelX":"0.22","accelY":"-0.12","accelZ":"1.03","gyroX":"4.92","gyroY":"2.30","gyroZ":"1.74","magX":"10.79","magY":"-21.44","magZ":"129.37","light":"6.67"}}
{"d":{"myName":"ti-sensortag2","ambientTemp":"22.81","objectTemp":"19.47","humidity":"51.06279","accelX":"0.22","accelY":"-0.12","accelZ":"1.03","gyroX":"4.92","gyroY":"2.30","gyroZ":"1.74","magX":"10.79","magY":"-21.44","magZ":"129.37","light":"6.67"}}
{"d":{"myName":"ti-sensortag2","ambientTemp":"22.97","objectTemp":"19.34","humidity":"50.38529","accelX":"0.22","accelY":"-0.12","accelZ":"1.03","gyroX":"4.92","gyroY":"2.30","gyroZ":"1.74","magX":"10.79","magY":"-21.44","magZ":"129.37","light":"6.67"}}
{"d":{"myName":"ti-sensortag2","ambientTemp":"22.97","objectTemp":"19.44","humidity":"50.38529","accelX":"-0.58","accelY":"-0.14","accelZ":"-0.08","gyroX":"-255.00","gyroY":"-184.67","gyroZ":"85.89","magX":"33.43","magY":"-3.90","magZ":"143.76","light":"2.01"}}
{"d":{"myName":"ti-sensortag2","ambientTemp":"22.97","objectTemp":"20.50","humidity":"50.38529","accelX":"0.12","accelY":"0.71","accelZ":"-1.07","gyroX":"-255.00","gyroY":"-140.10","gyroZ":"-203.18","magX":"35.38","magY":"22.94","magZ":"111.53","light":"1.69"}}
{"d":{"myName":"ti-sensortag2","ambientTemp":"22.97","objectTemp":"22.03","humidity":"50.38529","accelX":"-1.40","accelY":"0.14","accelZ":"0.44","gyroX":"-255.00","gyroY":"-156.99","gyroZ":"-255.00","magX":"1.35","magY":"25.48","magZ":"68.66","light":"0.32"}}
{"d":{"myName":"ti-sensortag2","ambientTemp":"22.97","objectTemp":"21.78","humidity":"50.38529","accelX":"-0.82","accelY":"-0.31","accelZ":"-0.20","gyroX":"-242.30","gyroY":"-255.00","gyroZ":"-126.41","magX":"12.29","magY":"24.88","magZ":"85.74","light":"0.32"}}
{"d":{"myName":"ti-sensortag2","ambientTemp":"22.97","objectTemp":"21.31","humidity":"50.38529","accelX":"1.19","accelY":"-0.02","accelZ":"0.48","gyroX":"-237.17","gyroY":"22.72","gyroZ":"254.99","magX":"1.50","magY":"-29.08","magZ":"59.51","light":"0.24"}}
{"d":{"myName":"ti-sensortag2","ambientTemp":"22.97","objectTemp":"22.03","humidity":"50.38529","accelX":"-0.79","accelY":"0.11","accelZ":"0.62","gyroX":"42.98","gyroY":"-19.06","gyroZ":"45.98","magX":"47.52","magY":"17.24","magZ":"135.36","light":"4.50"}}
{"d":{"myName":"ti-sensortag2","ambientTemp":"22.97","objectTemp":"21.84","humidity":"50.38529","accelX":"0.01","accelY":"-1.04","accelZ":"0.56","gyroX":"0.27","gyroY":"7.93","gyroZ":"5.59","magX":"63.71","magY":"-9.74","magZ":"123.22","light":"7.63"}}
{"d":{"myName":"ti-sensortag2","ambientTemp":"23.01","objectTemp":"22.91","humidity":"50.28764","accelX":"-0.08","accelY":"-0.91","accelZ":"0.54","gyroX":"3.81","gyroY":"4.96","gyroZ":"4.89","magX":"65.51","magY":"-7.94","magZ":"122.62","light":"3.62"}}
{"d":{"myName":"ti-sensortag2","ambientTemp":"23.01","objectTemp":"23.22","humidity":"50.28764","accelX":"-0.34","accelY":"-0.89","accelZ":"0.22","gyroX":"-9.74","gyroY":"67.53","gyroZ":"240.84","magX":"52.92","magY":"-16.64","magZ":"98.04","light":"1.44"}}
{"d":{"myName":"ti-sensortag2","ambientTemp":"23.01","objectTemp":"23.22","humidity":"50.28764","accelX":"-0.51","accelY":"-0.50","accelZ":"0.72","gyroX":"-120.87","gyroY":"-7.77","gyroZ":"-89.87","magX":"51.57","magY":"16.79","magZ":"128.17","light":"1.29"}}
{"d":{"myName":"ti-sensortag2","ambientTemp":"23.01","objectTemp":"22.59","humidity":"50.28764","accelX":"-0.27","accelY":"0.33","accelZ":"1.07","gyroX":"-28.18","gyroY":"-40.90","gyroZ":"84.24","magX":"29.68","magY":"17.24","magZ":"131.61","light":"8.20"}}
{"d":{"myName":"ti-sensortag2","ambientTemp":"23.01","objectTemp":"22.03","humidity":"50.28764","accelX":"-0.47","accelY":"0.26","accelZ":"0.46","gyroX":"134.82","gyroY":"-99.36","gyroZ":"128.66","magX":"38.08","magY":"21.74","magZ":"124.12","light":"8.03"}}
{"d":{"myName":"ti-sensortag2","ambientTemp":"23.01","objectTemp":"22.34","humidity":"50.28764","accelX":"-0.08","accelY":"-0.97","accelZ":"0.38","gyroX":"3.88","gyroY":"-10.87","gyroZ":"-63.44","magX":"62.51","magY":"-3.90","magZ":"116.92","light":"4.18"}}
{"d":{"myName":"ti-sensortag2","ambientTemp":"23.01","objectTemp":"22.78","humidity":"50.28764","accelX":"-0.01","accelY":"-0.59","accelZ":"0.73","gyroX":"-127.85","gyroY":"-7.17","gyroZ":"-66.98","magX":"50.52","magY":"12.89","magZ":"139.56","light":"6.50"}}
{"d":{"myName":"ti-sensortag2","ambientTemp":"23.01","objectTemp":"23.47","humidity":"50.28764","accelX":"-0.65","accelY":"-0.51","accelZ":"0.54","gyroX":"-49.94","gyroY":"-21.19","gyroZ":"-82.23","magX":"52.47","magY":"19.19","magZ":"126.52","light":"6.11"}}
{"d":{"myName":"ti-sensortag2","ambientTemp":"23.01","objectTemp":"22.78","humidity":"50.28764","accelX":"-0.08","accelY":"-0.19","accelZ":"0.97","gyroX":"14.48","gyroY":"-49.88","gyroZ":"-4.23","magX":"44.52","magY":"6.60","magZ":"161.44","light":"4.02"}}
{"d":{"myName":"ti-sensortag2","ambientTemp":"23.01","objectTemp":"22.53","humidity":"50.28764","accelX":"0.14","accelY":"-0.03","accelZ":"1.02","gyroX":"3.13","gyroY":"3.48","gyroZ":"6.12","magX":"44.52","magY":"-14.99","magZ":"158.00","light":"2.33"}}
{"d":{"myName":"ti-sensortag2","ambientTemp":"23.01","objectTemp":"21.97","humidity":"50.28764","accelX":"0.07","accelY":"0.00","accelZ":"1.07","gyroX":"5.16","gyroY":"3.21","gyroZ":"4.45","magX":"46.32","magY":"-13.94","magZ":"158.75","light":"5.46"}}
{"d":{"myName":"ti-sensortag2","ambientTemp":"23.01","objectTemp":"20.25","humidity":"50.28764","accelX":"0.10","accelY":"-0.04","accelZ":"1.02","gyroX":"4.33","gyroY":"3.60","gyroZ":"4.76","magX":"46.17","magY":"-13.04","magZ":"158.90","light":"2.33"}}
{"d":{"myName":"ti-sensortag2","ambientTemp":"23.01","objectTemp":"20.44","humidity":"50.28764","accelX":"0.36","accelY":"-0.93","accelZ":"-0.74","gyroX":"-9.52","gyroY":"-6.06","gyroZ":"-185.47","magX":"48.87","magY":"-11.39","magZ":"75.70","light":"1.85"}}
{"d":{"myName":"ti-sensortag2","ambientTemp":"23.01","objectTemp":"22.62","humidity":"50.28764","accelX":"-0.28","accelY":"-1.31","accelZ":"-0.04","gyroX":"-70.24","gyroY":"122.26","gyroZ":"-3.92","magX":"58.01","magY":"1.35","magZ":"87.69","light":"1.85"}}
{"d":{"myName":"ti-sensortag2","ambientTemp":"23.01","objectTemp":"22.88","humidity":"50.28764","accelX":"-0.26","accelY":"0.70","accelZ":"-0.41","gyroX":"-91.77","gyroY":"-41.87","gyroZ":"-77.91","magX":"-11.24","magY":"14.69","magZ":"49.62","light":"1.77"}}
{"d":{"myName":"ti-sensortag2","ambientTemp":"23.01","objectTemp":"22.84","humidity":"50.28764","accelX":"-0.48","accelY":"-0.43","accelZ":"0.77","gyroX":"1.41","gyroY":"29.14","gyroZ":"3.51","magX":"57.26","magY":"8.84","magZ":"130.56","light":"7.47"}}
{"d":{"myName":"ti-sensortag2","ambientTemp":"23.01","objectTemp":"21.66","humidity":"50.28764","accelX":"-0.54","accelY":"-0.42","accelZ":"0.77","gyroX":"2.53","gyroY":"-1.48","gyroZ":"-0.33","magX":"55.76","magY":"10.64","magZ":"129.07","light":"8.44"}}
{"d":{"myName":"ti-sensortag2","ambientTemp":"23.21","objectTemp":"21.41","humidity":"50.79423","accelX":"-0.57","accelY":"-0.51","accelZ":"0.73","gyroX":"4.44","gyroY":"3.45","gyroZ":"5.49","magX":"58.46","magY":"10.19","magZ":"128.92","light":"8.59"}}
{"d":{"myName":"ti-sensortag2","ambientTemp":"23.22","objectTemp":"21.88","humidity":"50.89189","accelX":"-0.53","accelY":"-0.58","accelZ":"0.69","gyroX":"4.11","gyroY":"4.33","gyroZ":"5.54","magX":"58.31","magY":"10.34","magZ":"128.17","light":"8.67"}}
{"d":{"myName":"ti-sensortag2","ambientTemp":"23.21","objectTemp":"22.22","humidity":"50.89189","accelX":"-0.39","accelY":"-1.14","accelZ":"0.48","gyroX":"-33.83","gyroY":"150.22","gyroZ":"-135.20","magX":"56.51","magY":"13.64","magZ":"130.86","light":"9.16"}}
{"d":{"myName":"ti-sensortag2","ambientTemp":"23.22","objectTemp":"24.62","humidity":"50.89189","accelX":"0.05","accelY":"0.45","accelZ":"-0.09","gyroX":"-176.90","gyroY":"254.99","gyroZ":"-53.09","magX":"12.89","magY":"15.44","magZ":"117.37","light":"0.89"}}
{"d":{"myName":"ti-sensortag2","ambientTemp":"23.22","objectTemp":"20.34","humidity":"50.89189","accelX":"-0.79","accelY":"0.19","accelZ":"0.79","gyroX":"18.56","gyroY":"-28.96","gyroZ":"-59.54","magX":"25.33","magY":"26.53","magZ":"98.34","light":"8.92"}}
{"d":{"myName":"ti-sensortag2","ambientTemp":"23.22","objectTemp":"20.53","humidity":"50.89189","accelX":"-0.06","accelY":"-0.11","accelZ":"1.06","gyroX":"4.19","gyroY":"3.73","gyroZ":"-1.66","magX":"46.17","magY":"-6.90","magZ":"152.90","light":"8.19"}}
{"d":{"myName":"ti-sensortag2","ambientTemp":"23.24","objectTemp":"20.88","humidity":"50.79423","accelX":"-0.02","accelY":"-0.09","accelZ":"1.08","gyroX":"3.99","gyroY":"4.79","gyroZ":"4.64","magX":"48.27","magY":"-11.24","magZ":"149.90","light":"6.75"}}
{"d":{"myName":"ti-sensortag2","ambientTemp":"23.26","objectTemp":"21.81","humidity":"50.69658","accelX":"-0.18","accelY":"1.30","accelZ":"1.12","gyroX":"-255.00","gyroY":"-255.00","gyroZ":"-255.00","magX":"38.97","magY":"20.09","magZ":"111.53","light":"10.44"}}
{"d":{"myName":"ti-sensortag2","ambientTemp":"23.26","objectTemp":"20.06","humidity":"50.69658","accelX":"1.93","accelY":"-2.46","accelZ":"1.10","gyroX":"-246.75","gyroY":"-127.80","gyroZ":"-96.48","magX":"53.81","magY":"-2.70","magZ":"139.71","light":"2.73"}}
{"d":{"myName":"ti-sensortag2","ambientTemp":"23.26","objectTemp":"20.06","humidity":"50.69658","accelX":"0.32","accelY":"-0.47","accelZ":"1.47","gyroX":"58.47","gyroY":"-89.23","gyroZ":"-34.65","magX":"48.12","magY":"0.15","magZ":"143.16","light":"9.08"}}
{"d":{"myName":"ti-sensortag2","ambientTemp":"23.26","objectTemp":"20.47","humidity":"50.69658","accelX":"0.05","accelY":"-0.07","accelZ":"1.05","gyroX":"1.77","gyroY":"5.14","gyroZ":"4.52","magX":"45.12","magY":"-14.39","magZ":"152.30","light":"6.10"}}
{"d":{"myName":"ti-sensortag2","ambientTemp":"23.26","objectTemp":"20.53","humidity":"50.69658","accelX":"0.11","accelY":"-0.08","accelZ":"1.02","gyroX":"4.61","gyroY":"4.74","gyroZ":"5.67","magX":"45.87","magY":"-13.79","magZ":"152.00","light":"6.02"}}
{"d":{"myName":"ti-sensortag2","ambientTemp":"23.26","objectTemp":"19.97","humidity":"50.69658","accelX":"0.07","accelY":"-0.02","accelZ":"1.01","gyroX":"3.71","gyroY":"3.24","gyroZ":"4.34","magX":"47.22","magY":"-13.79","magZ":"152.30","light":"6.18"}}
{"d":{"myName":"ti-sensortag2","ambientTemp":"23.26","objectTemp":"19.88","humidity":"50.69658","accelX":"0.04","accelY":"-0.04","accelZ":"1.03","gyroX":"3.84","gyroY":"4.24","gyroZ":"5.81","magX":"44.97","magY":"-13.94","magZ":"153.20","light":"6.18"}}
{"d":{"myName":"ti-sensortag2","ambientTemp":"23.26","objectTemp":"20.28","humidity":"50.69658","accelX":"0.07","accelY":"-0.06","accelZ":"1.05","gyroX":"3.95","gyroY":"3.62","gyroZ":"4.70","magX":"46.92","magY":"-14.39","magZ":"152.90","light":"6.26"}}
{"d":{"myName":"ti-sensortag2","ambientTemp":"23.26","objectTemp":"20.03","humidity":"50.69658","accelX":"0.06","accelY":"-0.09","accelZ":"1.07","gyroX":"5.11","gyroY":"3.28","gyroZ":"2.20","magX":"45.42","magY":"-15.14","magZ":"152.90","light":"6.18"}}
{"d":{"myName":"ti-sensortag2","ambientTemp":"23.26","objectTemp":"19.53","humidity":"50.69658","accelX":"0.06","accelY":"-0.09","accelZ":"1.07","gyroX":"5.11","gyroY":"3.28","gyroZ":"2.20","magX":"45.42","magY":"-15.14","magZ":"152.90","light":"6.10"}}
{"d":{"myName":"ti-sensortag2","ambientTemp":"23.26","objectTemp":"19.53","humidity":"50.69658","accelX":"0.06","accelY":"-0.09","accelZ":"1.07","gyroX":"5.11","gyroY":"3.28","gyroZ":"2.20","magX":"45.42","magY":"-15.14","magZ":"152.90","light":"6.11"}}
{"d":{"myName":"ti-sensortag2","ambientTemp":"23.26","objectTemp":"19.44","humidity":"50.69658","accelX":"0.06","accelY":"-0.09","accelZ":"1.07","gyroX":"5.11","gyroY":"3.28","gyroZ":"2.20","magX":"45.42","magY":"-15.14","magZ":"152.90","light":"6.03"}}
{"d":{"myName":"ti-sensortag2","ambientTemp":"23.26","objectTemp":"19.53","humidity":"50.69658","accelX":"0.06","accelY":"-0.09","accelZ":"1.07","gyroX":"5.11","gyroY":"3.28","gyroZ":"2.20","magX":"45.42","magY":"-15.14","magZ":"152.90","light":"6.18"}}
{"d":{"myName":"ti-sensortag2","ambientTemp":"23.26","objectTemp":"19.62","humidity":"50.69658","accelX":"0.06","accelY":"-0.09","accelZ":"1.07","gyroX":"5.11","gyroY":"3.28","gyroZ":"2.20","magX":"45.42","magY":"-15.14","magZ":"152.90","light":"6.26"}}
{"d":{"myName":"ti-sensortag2","ambientTemp":"23.26","objectTemp":"19.69","humidity":"50.69658","accelX":"0.06","accelY":"-0.09","accelZ":"1.07","gyroX":"5.11","gyroY":"3.28","gyroZ":"2.20","magX":"45.42","magY":"-15.14","magZ":"152.90","light":"6.11"}}
{"d":{"myName":"ti-sensortag2","ambientTemp":"23.26","objectTemp":"19.59","humidity":"50.69658","accelX":"0.06","accelY":"-0.09","accelZ":"1.07","gyroX":"5.11","gyroY":"3.28","gyroZ":"2.20","magX":"45.42","magY":"-15.14","magZ":"152.90","light":"6.03"}}
{"d":{"myName":"ti-sensortag2","ambientTemp":"23.26","objectTemp":"19.84","humidity":"50.69658","accelX":"0.06","accelY":"-0.09","accelZ":"1.07","gyroX":"5.11","gyroY":"3.28","gyroZ":"2.20","magX":"45.42","magY":"-15.14","magZ":"152.90","light":"6.11"}}
{"d":{"myName":"ti-sensortag2","ambientTemp":"23.26","objectTemp":"19.69","humidity":"50.69658","accelX":"0.06","accelY":"-0.09","accelZ":"1.07","gyroX":"5.11","gyroY":"3.28","gyroZ":"2.20","magX":"45.42","magY":"-15.14","magZ":"152.90","light":"6.26"}}
{"d":{"myName":"ti-sensortag2","ambientTemp":"23.26","objectTemp":"19.81","humidity":"50.69658","accelX":"0.06","accelY":"-0.09","accelZ":"1.07","gyroX":"5.11","gyroY":"3.28","gyroZ":"2.20","magX":"45.42","magY":"-15.14","magZ":"152.90","light":"6.34"}}
{"d":{"myName":"ti-sensortag2","ambientTemp":"23.26","objectTemp":"19.81","humidity":"50.69658","accelX":"0.06","accelY":"-0.09","accelZ":"1.07","gyroX":"5.11","gyroY":"3.28","gyroZ":"2.20","magX":"45.42","magY":"-15.14","magZ":"152.90","light":"6.34"}}
{"d":{"myName":"ti-sensortag2","ambientTemp":"23.26","objectTemp":"19.69","humidity":"50.69658","accelX":"0.06","accelY":"-0.09","accelZ":"1.07","gyroX":"5.11","gyroY":"3.28","gyroZ":"2.20","magX":"45.42","magY":"-15.14","magZ":"152.90","light":"6.18"}}
{"d":{"myName":"ti-sensortag2","ambientTemp":"23.26","objectTemp":"19.53","humidity":"50.69658","accelX":"0.06","accelY":"-0.09","accelZ":"1.07","gyroX":"5.11","gyroY":"3.28","gyroZ":"2.20","magX":"45.42","magY":"-15.14","magZ":"152.90","light":"6.03"}}
{"d":{"myName":"ti-sensortag2","ambientTemp":"23.26","objectTemp":"19.72","humidity":"50.69658","accelX":"0.06","accelY":"-0.09","accelZ":"1.07","gyroX":"5.11","gyroY":"3.28","gyroZ":"2.20","magX":"45.42","magY":"-15.14","magZ":"152.90","light":"6.34"}}
{"d":{"myName":"ti-sensortag2","ambientTemp":"23.26","objectTemp":"19.97","humidity":"50.69658","accelX":"0.06","accelY":"-0.09","accelZ":"1.07","gyroX":"5.11","gyroY":"3.28","gyroZ":"2.20","magX":"45.42","magY":"-15.14","magZ":"152.90","light":"6.11"}}
{"d":{"myName":"ti-sensortag2","ambientTemp":"23.37","objectTemp":"19.88","humidity":"48.46876","accelX":"0.06","accelY":"-0.09","accelZ":"1.07","gyroX":"5.11","gyroY":"3.28","gyroZ":"2.20","magX":"45.42","magY":"-15.14","magZ":"152.90","light":"6.11"}}
{"d":{"myName":"ti-sensortag2","ambientTemp":"23.38","objectTemp":"19.97","humidity":"48.46876","accelX":"0.06","accelY":"-0.09","accelZ":"1.07","gyroX":"5.11","gyroY":"3.28","gyroZ":"2.20","magX":"45.42","magY":"-15.14","magZ":"152.90","light":"6.34"}}
{"d":{"myName":"ti-sensortag2","ambientTemp":"23.37","objectTemp":"19.88","humidity":"48.3711","accelX":"0.06","accelY":"-0.09","accelZ":"1.07","gyroX":"5.11","gyroY":"3.28","gyroZ":"2.20","magX":"45.42","magY":"-15.14","magZ":"152.90","light":"6.34"}}
{"d":{"myName":"ti-sensortag2","ambientTemp":"23.37","objectTemp":"19.88","humidity":"48.3711","accelX":"0.06","accelY":"-0.09","accelZ":"1.07","gyroX":"5.11","gyroY":"3.28","gyroZ":"2.20","magX":"45.42","magY":"-15.14","magZ":"152.90","light":"6.34"}}
{"d":{"myName":"ti-sensortag2","ambientTemp":"23.37","objectTemp":"19.94","humidity":"48.3711","accelX":"0.06","accelY":"-0.09","accelZ":"1.07","gyroX":"5.11","gyroY":"3.28","gyroZ":"2.20","magX":"45.42","magY":"-15.14","magZ":"152.90","light":"6.26"}}
{"d":{"myName":"ti-sensortag2","ambientTemp":"23.37","objectTemp":"19.84","humidity":"48.3711","accelX":"0.06","accelY":"-0.09","accelZ":"1.07","gyroX":"5.11","gyroY":"3.28","gyroZ":"2.20","magX":"45.42","magY":"-15.14","magZ":"152.90","light":"6.11"}}
{"d":{"myName":"ti-sensortag2","ambientTemp":"23.37","objectTemp":"19.75","humidity":"48.3711","accelX":"0.06","accelY":"-0.09","accelZ":"1.07","gyroX":"5.11","gyroY":"3.28","gyroZ":"2.20","magX":"45.42","magY":"-15.14","magZ":"152.90","light":"6.26"}}
{"d":{"myName":"ti-sensortag2","ambientTemp":"23.37","objectTemp":"19.97","humidity":"48.3711","accelX":"0.06","accelY":"-0.09","accelZ":"1.07","gyroX":"5.11","gyroY":"3.28","gyroZ":"2.20","magX":"45.42","magY":"-15.14","magZ":"152.90","light":"6.18"}}
{"d":{"myName":"ti-sensortag2","ambientTemp":"23.37","objectTemp":"19.78","humidity":"48.3711","accelX":"0.06","accelY":"-0.09","accelZ":"1.07","gyroX":"5.11","gyroY":"3.28","gyroZ":"2.20","magX":"45.42","magY":"-15.14","magZ":"152.90","light":"6.42"}}
{"d":{"myName":"ti-sensortag2","ambientTemp":"23.37","objectTemp":"19.91","humidity":"48.3711","accelX":"0.06","accelY":"-0.09","accelZ":"1.07","gyroX":"5.11","gyroY":"3.28","gyroZ":"2.20","magX":"45.42","magY":"-15.14","magZ":"152.90","light":"6.11"}}
{"d":{"myName":"ti-sensortag2","ambientTemp":"23.38","objectTemp":"19.84","humidity":"48.07812","accelX":"0.06","accelY":"-0.09","accelZ":"1.07","gyroX":"5.11","gyroY":"3.28","gyroZ":"2.20","magX":"45.42","magY":"-15.14","magZ":"152.90","light":"6.34"}}
{"d":{"myName":"ti-sensortag2","ambientTemp":"23.38","objectTemp":"19.91","humidity":"48.07812","accelX":"0.06","accelY":"-0.09","accelZ":"1.07","gyroX":"5.11","gyroY":"3.28","gyroZ":"2.20","magX":"45.42","magY":"-15.14","magZ":"152.90","light":"6.11"}}
{"d":{"myName":"ti-sensortag2","ambientTemp":"23.38","objectTemp":"19.88","humidity":"48.07812","accelX":"0.06","accelY":"-0.09","accelZ":"1.07","gyroX":"5.11","gyroY":"3.28","gyroZ":"2.20","magX":"45.42","magY":"-15.14","magZ":"152.90","light":"6.27"}}
{"d":{"myName":"ti-sensortag2","ambientTemp":"23.38","objectTemp":"19.84","humidity":"47.98047","accelX":"0.06","accelY":"-0.09","accelZ":"1.07","gyroX":"5.11","gyroY":"3.28","gyroZ":"2.20","magX":"45.42","magY":"-15.14","magZ":"152.90","light":"6.34"}}
{"d":{"myName":"ti-sensortag2","ambientTemp":"23.38","objectTemp":"19.94","humidity":"47.98047","accelX":"0.06","accelY":"-0.09","accelZ":"1.07","gyroX":"5.11","gyroY":"3.28","gyroZ":"2.20","magX":"45.42","magY":"-15.14","magZ":"152.90","light":"6.34"}}
{"d":{"myName":"ti-sensortag2","ambientTemp":"23.38","objectTemp":"20.00","humidity":"47.98047","accelX":"0.06","accelY":"-0.09","accelZ":"1.07","gyroX":"5.11","gyroY":"3.28","gyroZ":"2.20","magX":"45.42","magY":"-15.14","magZ":"152.90","light":"6.42"}}
{"d":{"myName":"ti-sensortag2","ambientTemp":"23.38","objectTemp":"19.75","humidity":"47.98047","accelX":"0.06","accelY":"-0.09","accelZ":"1.07","gyroX":"5.11","gyroY":"3.28","gyroZ":"2.20","magX":"45.42","magY":"-15.14","magZ":"152.90","light":"6.34"}}
{"d":{"myName":"ti-sensortag2","ambientTemp":"23.38","objectTemp":"19.78","humidity":"47.98047","accelX":"0.06","accelY":"-0.09","accelZ":"1.07","gyroX":"5.11","gyroY":"3.28","gyroZ":"2.20","magX":"45.42","magY":"-15.14","magZ":"152.90","light":"6.42"}}
{"d":{"myName":"ti-sensortag2","ambientTemp":"23.38","objectTemp":"19.97","humidity":"47.79126","accelX":"0.06","accelY":"-0.09","accelZ":"1.07","gyroX":"5.11","gyroY":"3.28","gyroZ":"2.20","magX":"45.42","magY":"-15.14","magZ":"152.90","light":"6.34"}}
{"d":{"myName":"ti-sensortag2","ambientTemp":"23.38","objectTemp":"19.97","humidity":"47.6936","accelX":"0.06","accelY":"-0.09","accelZ":"1.07","gyroX":"5.11","gyroY":"3.28","gyroZ":"2.20","magX":"45.42","magY":"-15.14","magZ":"152.90","light":"6.34"}}
{"d":{"myName":"ti-sensortag2","ambientTemp":"23.38","objectTemp":"20.03","humidity":"47.6936","accelX":"0.06","accelY":"-0.09","accelZ":"1.07","gyroX":"5.11","gyroY":"3.28","gyroZ":"2.20","magX":"45.42","magY":"-15.14","magZ":"152.90","light":"6.03"}}
{"d":{"myName":"ti-sensortag2","ambientTemp":"23.38","objectTemp":"20.00","humidity":"47.6936","accelX":"0.06","accelY":"-0.09","accelZ":"1.07","gyroX":"5.11","gyroY":"3.28","gyroZ":"2.20","magX":"45.42","magY":"-15.14","magZ":"152.90","light":"6.34"}}
{"d":{"myName":"ti-sensortag2","ambientTemp":"23.38","objectTemp":"19.84","humidity":"47.6936","accelX":"0.06","accelY":"-0.09","accelZ":"1.07","gyroX":"5.11","gyroY":"3.28","gyroZ":"2.20","magX":"45.42","magY":"-15.14","magZ":"152.90","light":"6.19"}}
{"d":{"myName":"ti-sensortag2","ambientTemp":"23.38","objectTemp":"20.03","humidity":"47.6936","accelX":"0.06","accelY":"-0.09","accelZ":"1.07","gyroX":"5.11","gyroY":"3.28","gyroZ":"2.20","magX":"45.42","magY":"-15.14","magZ":"152.90","light":"6.03"}}
{"d":{"myName":"ti-sensortag2","ambientTemp":"23.38","objectTemp":"20.12","humidity":"47.6936","accelX":"0.06","accelY":"-0.09","accelZ":"1.07","gyroX":"5.11","gyroY":"3.28","gyroZ":"2.20","magX":"45.42","magY":"-15.14","magZ":"152.90","light":"6.03"}}
{"d":{"myName":"ti-sensortag2","ambientTemp":"23.38","objectTemp":"19.94","humidity":"47.6936","accelX":"0.06","accelY":"-0.09","accelZ":"1.07","gyroX":"5.11","gyroY":"3.28","gyroZ":"2.20","magX":"45.42","magY":"-15.14","magZ":"152.90","light":"6.03"}}
{"d":{"myName":"ti-sensortag2","ambientTemp":"23.38","objectTemp":"20.06","humidity":"47.6936","accelX":"0.06","accelY":"-0.09","accelZ":"1.07","gyroX":"5.11","gyroY":"3.28","gyroZ":"2.20","magX":"45.42","magY":"-15.14","magZ":"152.90","light":"6.11"}}
{"d":{"myName":"ti-sensortag2","ambientTemp":"23.38","objectTemp":"20.12","humidity":"47.6936","accelX":"0.06","accelY":"-0.09","accelZ":"1.07","gyroX":"5.11","gyroY":"3.28","gyroZ":"2.20","magX":"45.42","magY":"-15.14","magZ":"152.90","light":"6.11"}}
{"d":{"myName":"ti-sensortag2","ambientTemp":"23.37","objectTemp":"20.12","humidity":"47.49828","accelX":"0.06","accelY":"-0.09","accelZ":"1.07","gyroX":"5.11","gyroY":"3.28","gyroZ":"2.20","magX":"45.42","magY":"-15.14","magZ":"152.90","light":"6.26"}}
{"d":{"myName":"ti-sensortag2","ambientTemp":"23.37","objectTemp":"20.12","humidity":"47.49828","accelX":"0.06","accelY":"-0.09","accelZ":"1.07","gyroX":"5.11","gyroY":"3.28","gyroZ":"2.20","magX":"45.42","magY":"-15.14","magZ":"152.90","light":"6.34"}}
{"d":{"myName":"ti-sensortag2","ambientTemp":"23.37","objectTemp":"20.25","humidity":"47.49828","accelX":"0.06","accelY":"-0.09","accelZ":"1.07","gyroX":"5.11","gyroY":"3.28","gyroZ":"2.20","magX":"45.42","magY":"-15.14","magZ":"152.90","light":"6.26"}}
{"d":{"myName":"ti-sensortag2","ambientTemp":"23.37","objectTemp":"19.97","humidity":"47.49828","accelX":"0.06","accelY":"-0.09","accelZ":"1.07","gyroX":"5.11","gyroY":"3.28","gyroZ":"2.20","magX":"45.42","magY":"-15.14","magZ":"152.90","light":"6.26"}}
{"d":{"myName":"ti-sensortag2","ambientTemp":"23.37","objectTemp":"20.19","humidity":"47.49828","accelX":"0.06","accelY":"-0.09","accelZ":"1.07","gyroX":"5.11","gyroY":"3.28","gyroZ":"2.20","magX":"45.42","magY":"-15.14","magZ":"152.90","light":"6.26"}}
